{
  "Impacts": [
    {
      "level": "Insignificante",
      "weight": 1,
      "porcent": 0.2,
      "description": "Pérdida económica que no pone en riesgo los intereses de la compañía y no afecta el flujo normal de los procesos."
    },
    {
      "level": "Menor",
      "weight": 2,
      "porcent": 0.4,
      "description": "Pérdida económicamente asumible por la compañía sin consecuencias ni esfuerzos adicionales que afecten notablemente su situación financiera y no afecta los procesos de manera considerable."
    },
    {
      "level": "Moderado",
      "weight": 3,
      "porcent": 0.6,
      "description": "Pérdida económicamente mediana, respaldable por la compañía y puede afectar el flujo normal de algún proceso de la compañía."
    },
    {
      "level": "Mayor",
      "weight": 4,
      "porcent": 0.8,
      "description": "Pérdida económica importante, que implica esfuerzos adicionales no planeados por la compañía y se puede presentar una interrupción parcial en los procesos."
    },
    {
      "level": "Catastrófico",
      "weight": 5,
      "porcent": 1,
      "description": "Pérdida económica que compromete seriamente el patrimonio y la estabilidad de la compañía y se interrumpe el proceso normal de las operaciones de manera indefinida."
    }
  ],
  "Probabilities": [
    {
      "level": "Altamente improbable",
      "weight": 1,
      "porcent": 0.2,
      "description": "Ocurre solamente en circunstancias excepcionales. Los controles de seguridad existentes son seguros y hasta han suministrado un adecuado nivel de protección."
    },
    {
      "level": "Improbable",
      "weight": 2,
      "porcent": 0.4,
      "description": "Podría ocurrir en algún momento, Los controles de seguridad existentes son moderados y en general han suministrado un adecuado nivel de protección."
    },
    {
      "level": "Eventual",
      "weight": 3,
      "porcent": 0.6,
      "description": "Es posible la ocurrencia de nuevos incidentes, pero no muy probable."
    },
    {
      "level": "Probable",
      "weight": 4,
      "porcent": 0.8,
      "description": "Ocurre normalmente. Existe una gran probabilidad de que haya incidentes así en el futuro."
    },
    {
      "level": "Altamente probable",
      "weight": 5,
      "porcent": 1,
      "description": "Se espera que ocurra en la mayoría de las circunstancias. Los controles de seguridad existentes son bajos o ineficaces."
    }
  ]
}
